newmtl d_gun:BLACK_PLSTC
illum 4
Kd 0.02 0.02 0.02
Ka 0.02 0.02 0.02
Tf 1.00 1.00 1.00
Ni 1.00
Ks 1.00 1.00 1.00
Ns 78.79
newmtl d_gun:GOLD__DARK_
illum 4
Kd 0.61 0.49 0.29
Ka 0.36 0.29 0.17
Tf 1.00 1.00 1.00
Ni 1.00
Ks 1.00 1.00 1.00
Ns 362.04
newmtl d_gun:SILVER
illum 4
Kd 0.50 0.45 0.41
Ka 0.47 0.45 0.43
Tf 1.00 1.00 1.00
Ni 1.00
Ks 1.00 1.00 1.00
Ns 362.04
newmtl d_gun:WOOD___ASH
illum 4
Kd 0.00 0.00 0.00
Ka 0.00 0.00 0.00
Tf 1.00 1.00 1.00
Ni 1.00
Ks 0.25 0.25 0.25
Ns 5.28
