
# Rabbit.obj

v -0.334392 0.133007 0.062259
v -0.350189 0.150354 -0.147769
v -0.234201 0.343811 -0.174307
v -0.200259 0.285207 0.093749
v 0.003520 0.475208 -0.159365
v 0.001856 0.419203 0.098582
v -0.252802 0.093666 0.237538
v -0.162901 0.237984 0.206905
v 0.000865 0.318141 0.235370
v -0.414624 0.164083 -0.278254
v -0.262213 0.357334 -0.293246
v 0.004628 0.482694 -0.338626
v -0.402162 0.133528 -0.443247
v -0.243781 0.324275 -0.436763
v 0.005293 0.437592 -0.458332
v -0.339884 -0.041150 -0.668211
v -0.248382 0.255825 -0.627493
v 0.006261 0.376103 -0.631506
v -0.216201 -0.126776 -0.886936
v -0.171075 0.011544 -0.881386
v -0.181074 0.098223 -0.814779
v -0.119891 0.218786 -0.760153
v -0.078895 0.276780 -0.739281
v 0.006801 0.310959 -0.735661
v -0.168842 0.102387 -0.920381
v -0.104072 0.177278 -0.952530
v -0.129704 0.211848 -0.836678
v -0.099875 0.310931 -0.799381
v 0.007237 0.361687 -0.794439
v -0.077913 0.258753 -0.921640
v 0.007957 0.282241 -0.931680
v -0.252222 -0.550401 -0.557810
v -0.267633 -0.603419 -0.655209
v -0.446838 -0.118517 -0.466159
v -0.459488 -0.093017 -0.311341
v -0.370645 -0.100108 -0.159454
v -0.371984 -0.091991 -0.011044
v -0.328945 -0.098269 0.088659
v -0.282452 -0.018862 0.311501
v -0.352403 -0.131341 0.144902
v -0.364126 -0.200299 0.202388
v -0.283965 -0.231869 0.023668
v -0.298943 -0.155218 0.369716
v -0.293787 -0.121856 0.419097
v -0.290163 -0.290797 0.107824
v -0.264165 -0.272849 0.036347
v -0.228567 -0.372573 0.290309
v -0.190431 -0.286997 0.421917
v -0.191039 -0.240973 0.507118
v -0.287272 -0.276431 -0.065444
v -0.295675 -0.280818 -0.174200
v -0.399537 -0.313131 -0.376167
v -0.392666 -0.488581 -0.427494
v -0.331669 -0.570185 -0.466054
v -0.282290 -0.618140 -0.589220
v -0.374238 -0.594882 -0.323298
v -0.381071 -0.629723 -0.350777
v -0.382112 -0.624060 -0.221577
v -0.272701 -0.566522 0.259157
v -0.256702 -0.663406 0.286079
v -0.280948 -0.428359 0.055790
v -0.184974 -0.508894 0.326265
v -0.279971 -0.526918 0.395319
v -0.282599 -0.663393 0.412411
v -0.188329 -0.475093 0.417954
v -0.263384 -0.663396 0.466604
v -0.209063 -0.663393 0.509344
v -0.002044 -0.319624 0.553078
v -0.001266 -0.371260 0.413296
v -0.219753 -0.339762 -0.040921
v -0.256986 -0.282511 -0.006349
v -0.271706 -0.260881 0.001764
v -0.091191 -0.419184 -0.045912
v -0.114944 -0.429752 -0.124739
v -0.113970 -0.382987 -0.188540
v -0.243012 -0.464942 -0.242850
v -0.314815 -0.505402 -0.324768
v 0.002774 -0.437526 -0.262766
v -0.072625 -0.417748 -0.221440
v -0.160112 -0.476932 -0.293450
v 0.003859 -0.453425 -0.443916
v -0.120363 -0.581567 -0.438689
v -0.091499 -0.584191 -0.294511
v -0.116469 -0.599861 -0.188308
v -0.208032 -0.513640 -0.134649
v -0.235749 -0.610017 -0.040939
v -0.344916 -0.622487 -0.085380
v -0.336401 -0.531864 -0.212298
v 0.001961 -0.459550 -0.135547
v -0.058296 -0.430536 -0.043440
v 0.001378 -0.449511 -0.037762
v -0.130135 -0.510222 0.079144
v 0.000142 -0.477549 0.157064
v -0.114284 -0.453206 0.304397
v -0.000592 -0.443558 0.285401
v -0.056215 -0.663402 0.326073
v -0.026248 -0.568010 0.273318
v -0.049261 -0.531064 0.389854
v -0.127096 -0.663398 0.479316
v -0.058384 -0.663401 0.372891
v -0.303961 0.054199 0.625921
v -0.268594 0.193403 0.502766
v -0.277159 0.126123 0.443289
v -0.287605 -0.005722 0.531844
v -0.231396 -0.121289 0.587387
v -0.253475 -0.081797 0.756541
v -0.195164 -0.137969 0.728011
v -0.167673 -0.156573 0.609388
v -0.145917 -0.169029 0.697600
v -0.077776 -0.214247 0.622586
v -0.076873 -0.214971 0.696301
v -0.002341 -0.233135 0.622859
v -0.002730 -0.213526 0.691267
v -0.003136 -0.192628 0.762731
v -0.056136 -0.201222 0.763806
v -0.114589 -0.166192 0.770723
v -0.155145 -0.129632 0.791738
v -0.183611 -0.058705 0.847012
v -0.165562 0.001980 0.833386
v -0.220084 0.019914 0.768935
v -0.255730 0.090306 0.670782
v -0.255594 0.113833 0.663389
v -0.226380 0.212655 0.617740
v -0.003367 -0.195342 0.799680
v -0.029743 -0.210508 0.827180
v -0.003818 -0.194783 0.873636
v -0.004116 -0.157907 0.931268
v -0.031280 -0.184555 0.889476
v -0.059885 -0.184448 0.841330
v -0.135333 -0.164332 0.878200
v -0.085574 -0.170948 0.925547
v -0.163833 -0.094170 0.897114
v -0.138444 -0.104250 0.945975
v -0.083497 -0.084934 0.979607
v -0.004433 -0.146642 0.985872
v -0.150715 0.032650 0.884111
v -0.135892 -0.035520 0.945455
v -0.070612 0.036849 0.975733
v -0.004458 -0.042526 1.015670
v -0.004249 0.046042 1.003240
v -0.086969 0.133224 0.947633
v -0.003873 0.161605 0.970499
v -0.125544 0.140012 0.917678
v -0.125651 0.250246 0.857602
v -0.003127 0.284070 0.878870
v -0.159174 0.125726 0.888878
v -0.183807 0.196970 0.844480
v -0.159890 0.291736 0.732480
v -0.199495 0.207230 0.779864
v -0.206182 0.164608 0.693257
v -0.186315 0.160689 0.817193
v -0.192827 0.166706 0.782271
v -0.175112 0.110008 0.860621
v -0.161022 0.057420 0.855111
v -0.172319 0.036155 0.816189
v -0.190318 0.064083 0.760605
v -0.195072 0.129179 0.731104
v -0.203126 0.410287 0.680536
v -0.216677 0.309274 0.642272
v -0.241515 0.311485 0.587832
v -0.002209 0.366663 0.749413
v -0.088230 0.396265 0.678635
v -0.170147 0.109517 0.840784
v -0.160521 0.067766 0.830650
v -0.181546 0.139805 0.812146
v -0.180495 0.148568 0.776087
v -0.180255 0.129125 0.744192
v -0.186298 0.078308 0.769352
v -0.167622 0.060539 0.806675
v -0.189876 0.102760 0.802582
v -0.108340 0.455446 0.657174
v -0.241585 0.527592 0.669296
v -0.265676 0.513366 0.634594
v -0.203073 0.478550 0.581526
v -0.266772 0.642330 0.602061
v -0.216961 0.564846 0.535435
v -0.202210 0.525495 0.475944
v -0.193888 0.467925 0.520606
v -0.265837 0.757267 0.500933
v -0.240306 0.653440 0.463215
v -0.309239 0.776868 0.304726
v -0.271009 0.683094 0.382018
v -0.312111 0.671099 0.286687
v -0.268791 0.624342 0.377231
v -0.302457 0.533996 0.360289
v -0.263656 0.529310 0.412564
v -0.282311 0.415167 0.447666
v -0.239201 0.442096 0.495604
v -0.220043 0.569026 0.445877
v -0.001263 0.395631 0.602029
v -0.057345 0.442535 0.572224
v -0.088927 0.506333 0.529106
v -0.125738 0.535076 0.612913
v -0.126251 0.577170 0.483159
v -0.149594 0.611520 0.557731
v -0.163188 0.660791 0.491080
v -0.172482 0.663387 0.415416
v -0.160464 0.591710 0.370659
v -0.156445 0.536396 0.378302
v -0.136496 0.444358 0.425226
v -0.095564 0.373768 0.473659
v -0.104146 0.315912 0.498104
v -0.000496 0.384194 0.473817
v -0.000183 0.297770 0.401486
v -0.129042 0.270145 0.434495
v 0.000100 0.272963 0.349138
v -0.113060 0.236984 0.385554
v 0.007260 0.016311 -0.883396
v 0.007865 0.122104 -0.956137
v -0.032842 0.115282 -0.953252
v -0.089115 0.108449 -0.950317
v -0.047440 0.014729 -0.882756
v -0.104458 0.013137 -0.882070
v -0.086439 -0.584866 -0.608343
v -0.115026 -0.662605 -0.436732
v -0.071683 -0.665372 -0.606385
v -0.257884 -0.665381 -0.658052
v -0.272542 -0.665381 -0.592063
v -0.371322 -0.665382 -0.353620
v -0.372362 -0.665381 -0.224420
v -0.335166 -0.665380 -0.078623
v -0.225999 -0.665375 -0.038981
v -0.106719 -0.665374 -0.186351
v -0.081749 -0.665372 -0.292554
v 0.006943 -0.091505 -0.858354
v 0.006117 -0.280985 -0.769967
v 0.004495 -0.502360 -0.559799
v -0.198638 -0.302135 -0.845816
v -0.237395 -0.542544 -0.587188
v -0.270001 -0.279489 -0.669861
v -0.134547 -0.119852 -0.959004
v -0.052088 -0.122463 -0.944549
v -0.124463 -0.293508 -0.899566
v -0.047616 -0.289643 -0.879292
v -0.168595 -0.529132 -0.654931
v -0.099793 -0.515719 -0.645873
v -0.186168 -0.605282 -0.724690
v -0.112970 -0.583097 -0.707469
v -0.108152 -0.665375 -0.700408
v -0.183019 -0.665378 -0.717630
v -0.349529 -0.334459 -0.511985
v -0.141182 -0.437705 -0.798194
v -0.212670 -0.448725 -0.737447
v -0.261111 -0.414945 -0.613835
v -0.077364 -0.431480 -0.778113
v 0.005174 -0.425277 -0.651592
v 0.089236 -0.431732 -0.777093
v 0.271006 -0.415749 -0.610577
v 0.223981 -0.449384 -0.734774
v 0.153275 -0.438150 -0.796391
v 0.358414 -0.335529 -0.507649
v 0.193434 -0.665946 -0.715325
v 0.118363 -0.665717 -0.699021
v 0.123515 -0.583454 -0.706020
v 0.196851 -0.605860 -0.722345
v 0.109788 -0.516035 -0.644590
v 0.178656 -0.529656 -0.652804
v 0.061157 -0.289807 -0.878626
v 0.138234 -0.293905 -0.897958
v 0.066933 -0.122643 -0.943820
v 0.149571 -0.120281 -0.957264
v 0.280989 -0.280321 -0.666487
v 0.246581 -0.543275 -0.584224
v 0.211720 -0.302754 -0.843303
v 0.086966 -0.665627 -0.291520
v 0.110634 -0.665702 -0.185021
v 0.228099 -0.666061 -0.036201
v 0.337743 -0.666396 -0.074503
v 0.376722 -0.666513 -0.219833
v 0.377265 -0.666513 -0.349036
v 0.281411 -0.666217 -0.588670
v 0.267564 -0.666174 -0.654834
v 0.080745 -0.665602 -0.605452
v 0.122016 -0.662963 -0.435280
v 0.095767 -0.585141 -0.607228
v 0.118944 0.012799 -0.880702
v 0.061944 0.014564 -0.882086
v 0.104725 0.108156 -0.949130
v 0.048513 0.115159 -0.952753
v 0.112696 0.236643 0.386937
v 0.128177 0.269757 0.436071
v 0.102643 0.315600 0.499370
v 0.094535 0.373481 0.474824
v 0.136270 0.443946 0.426895
v 0.157071 0.535923 0.380222
v 0.161350 0.591224 0.372630
v 0.173035 0.662865 0.417531
v 0.162808 0.660299 0.493077
v 0.148250 0.611070 0.559555
v 0.125719 0.576790 0.484702
v 0.123489 0.534699 0.614440
v 0.087621 0.506066 0.530188
v 0.055321 0.442365 0.572915
v 0.219936 0.568361 0.448571
v 0.238099 0.441375 0.498528
v 0.281711 0.414315 0.451121
v 0.263833 0.528513 0.415794
v 0.303284 0.533081 0.363998
v 0.269687 0.623528 0.380528
v 0.314255 0.670153 0.290524
v 0.272023 0.682273 0.385343
v 0.311480 0.775931 0.308527
v 0.240239 0.652714 0.466159
v 0.265619 0.756464 0.504187
v 0.192562 0.467341 0.522972
v 0.201605 0.524885 0.478417
v 0.215743 0.564193 0.538084
v 0.264969 0.641527 0.605317
v 0.201031 0.477940 0.584002
v 0.263086 0.512567 0.637832
v 0.238615 0.526867 0.672237
v 0.105309 0.455123 0.658482
v 0.183993 0.102195 0.804872
v 0.161563 0.060042 0.808692
v 0.180748 0.077754 0.771600
v 0.175168 0.128588 0.746368
v 0.175075 0.148030 0.778264
v 0.175658 0.139265 0.814333
v 0.154191 0.067291 0.832578
v 0.163818 0.109013 0.842830
v 0.084760 0.396004 0.679695
v 0.238888 0.310760 0.590775
v 0.213380 0.308625 0.644905
v 0.199666 0.409678 0.683003
v 0.190143 0.128597 0.733463
v 0.184833 0.063516 0.762902
v 0.166070 0.035644 0.818261
v 0.154361 0.056943 0.857042
v 0.168542 0.109489 0.862725
v 0.187387 0.166131 0.784599
v 0.180428 0.160135 0.819438
v 0.201823 0.163991 0.695756
v 0.194206 0.206635 0.782275
v 0.155438 0.291260 0.734412
v 0.177696 0.196424 0.846693
v 0.152305 0.125256 0.890786
v 0.119546 0.249876 0.859104
v 0.118369 0.139643 0.919173
v 0.079410 0.132973 0.948652
v 0.062419 0.036648 0.976547
v 0.127847 -0.035919 0.947070
v 0.143624 0.032206 0.885913
v 0.074888 -0.085173 0.980577
v 0.130184 -0.104656 0.947620
v 0.156201 -0.094653 0.899074
v 0.077366 -0.171194 0.926545
v 0.127722 -0.164729 0.879810
v 0.052670 -0.184618 0.842019
v 0.023477 -0.184638 0.889811
v 0.022626 -0.210587 0.827500
v 0.223089 0.211976 0.620493
v 0.251444 0.113067 0.666494
v 0.251419 0.089540 0.673887
v 0.214360 0.019258 0.771595
v 0.158999 0.001490 0.835374
v 0.176696 -0.059249 0.849218
v 0.148696 -0.130091 0.793599
v 0.108290 -0.166528 0.772088
v 0.049820 -0.201382 0.764454
v 0.071341 -0.215195 0.697209
v 0.073148 -0.214475 0.623510
v 0.140502 -0.169461 0.699354
v 0.163374 -0.157073 0.611416
v 0.189466 -0.138550 0.730366
v 0.247593 -0.082554 0.759610
v 0.227468 -0.121982 0.590197
v 0.284702 -0.006586 0.535347
v 0.275741 0.125287 0.446676
v 0.266650 0.192594 0.506044
v 0.300086 0.053287 0.629620
v 0.055450 -0.663935 0.375065
v 0.122854 -0.664138 0.482323
v 0.046520 -0.531571 0.391918
v 0.024824 -0.568450 0.275106
v 0.053855 -0.663931 0.328224
v 0.112829 -0.453549 0.305788
v 0.131265 -0.510617 0.080746
v 0.061174 -0.430716 -0.042710
v 0.341019 -0.532887 -0.208150
v 0.347705 -0.623533 -0.081139
v 0.238040 -0.610732 -0.038037
v 0.211764 -0.514274 -0.132078
v 0.120605 -0.600219 -0.186856
v 0.096985 -0.584476 -0.293357
v 0.127621 -0.581941 -0.437170
v 0.165902 -0.477425 -0.291453
v 0.077720 -0.417975 -0.220519
v 0.320892 -0.506363 -0.320874
v 0.248214 -0.465684 -0.239842
v 0.118764 -0.383338 -0.187114
v 0.118816 -0.430106 -0.123307
v 0.094131 -0.419464 -0.044777
v 0.274526 -0.261706 0.005110
v 0.259842 -0.283292 -0.003185
v 0.222861 -0.340431 -0.038210
v 0.204445 -0.664380 0.513353
v 0.259286 -0.664547 0.471281
v 0.185402 -0.476020 0.421718
v 0.279163 -0.664604 0.417328
v 0.277157 -0.528122 0.400208
v 0.183069 -0.509812 0.329995
v 0.282599 -0.429210 0.059242
v 0.254816 -0.664541 0.290687
v 0.271436 -0.567707 0.263966
v 0.386561 -0.625221 -0.216870
v 0.387086 -0.630883 -0.346073
v 0.380021 -0.596021 -0.318679
v 0.291269 -0.619007 -0.585707
v 0.339280 -0.571198 -0.461946
v 0.400045 -0.489778 -0.422640
v 0.406817 -0.314349 -0.371230
v 0.300588 -0.281718 -0.170549
v 0.290866 -0.277304 -0.061905
v 0.187735 -0.241545 0.509437
v 0.188032 -0.287569 0.424234
v 0.227520 -0.373262 0.293102
v 0.266526 -0.273650 0.039597
v 0.291592 -0.291676 0.111386
v 0.291914 -0.122741 0.422683
v 0.297574 -0.156119 0.373368
v 0.286603 -0.232731 0.027162
v 0.364663 -0.201399 0.206850
v 0.353855 -0.132408 0.149228
v 0.282208 -0.019715 0.314960
v 0.331187 -0.099266 0.092701
v 0.375463 -0.093120 -0.006467
v 0.375917 -0.101236 -0.154882
v 0.466635 -0.094416 -0.305669
v 0.455805 -0.119881 -0.460632
v 0.277465 -0.604242 -0.651871
v 0.261022 -0.551176 -0.554667
v 0.093627 0.258494 -0.920589
v 0.114248 0.310608 -0.798070
v 0.144232 0.211434 -0.835001
v 0.119916 0.176940 -0.951159
v 0.184061 0.101854 -0.918220
v 0.092431 0.276521 -0.738231
v 0.133504 0.218403 -0.758602
v 0.194987 0.097655 -0.812476
v 0.185542 0.011005 -0.879202
v 0.230315 -0.127450 -0.884202
v 0.260471 0.255056 -0.624378
v 0.351567 -0.042194 -0.663976
v 0.253742 0.323524 -0.433716
v 0.411612 0.132299 -0.438264
v 0.270513 0.356530 -0.289984
v 0.422146 0.162819 -0.273130
v 0.164724 0.237490 0.208912
v 0.253806 0.092900 0.240640
v 0.203608 0.284597 0.096223
v 0.241006 0.343093 -0.171396
v 0.356076 0.149288 -0.143443
v 0.337656 0.131992 0.066374
# 453 Vertices

g Rabbit
f 127 135 134
f 343 139 135
f 134 135 139
f 127 343 135
f 313 317 318
f 170 164 163
f 313 318 320
f 313 320 319
f 170 163 165
f 170 169 164
f 313 315 316
f 170 165 166
f 170 168 169
f 313 316 317
f 313 314 315
f 170 166 167
f 170 167 168
f 313 319 314
f 309 305 306
f 309 306 307
f 180 182 189
f 178 174 176
f 178 176 177
f 303 294 301
f 323 295 305
f 189 177 176
f 189 176 180
f 159 178 188
f 306 294 303
f 306 303 307
f 323 305 309
f 189 182 184
f 159 174 178
f 294 299 301
f 305 295 297
f 305 297 306
f 186 177 189
f 186 189 184
f 188 178 177
f 188 177 186
f 306 297 299
f 306 299 294
f 437 433 29
f 437 29 24
f 435 279 432
f 31 209 210
f 31 210 30
f 20 21 25
f 209 208 212
f 209 212 210
f 20 211 213
f 434 435 432
f 434 432 433
f 434 433 437
f 437 438 434
f 278 276 277
f 278 277 279
f 210 211 26
f 22 27 25
f 22 25 21
f 26 27 28
f 26 28 30
f 436 440 278
f 440 276 278
f 433 432 31
f 433 31 29
f 434 438 439
f 434 439 436
f 435 278 279
f 25 26 211
f 25 27 26
f 30 28 29
f 30 29 31
f 20 25 211
f 209 31 432
f 209 432 279
f 436 435 434
f 436 278 435
f 26 30 210
f 28 23 24
f 28 24 29
f 27 23 28
f 27 22 23
f 213 211 210
f 213 210 212
f 208 209 279
f 208 279 277
f 440 436 439
f 13 10 11
f 13 11 14
f 3 4 6
f 3 6 5
f 17 14 15
f 17 15 18
f 23 22 17
f 14 11 12
f 14 12 15
f 2 1 4
f 2 4 3
f 16 13 17
f 20 19 16
f 20 16 17
f 20 17 21
f 10 2 3
f 10 3 11
f 4 8 9
f 4 9 6
f 17 18 24
f 17 24 23
f 22 21 17
f 11 3 5
f 11 5 12
f 1 7 8
f 1 8 4
f 13 14 17
f 452 447 446
f 452 446 451
f 443 441 440
f 443 440 439
f 443 439 442
f 422 421 423
f 413 412 427
f 413 427 426
f 409 406 408
f 414 68 69
f 414 69 415
f 392 391 413
f 81 385 387
f 405 407 379
f 391 392 378
f 391 378 89
f 401 416 376
f 399 397 396
f 399 396 372
f 399 372 371
f 113 360 359
f 113 359 114
f 352 353 370
f 126 350 349
f 346 344 343
f 343 341 340
f 342 336 338
f 329 342 328
f 332 324 334
f 332 323 324
f 328 319 320
f 328 320 329
f 316 315 325
f 303 301 302
f 303 302 304
f 321 312 293
f 286 285 290
f 311 308 289
f 311 289 291
f 322 351 282
f 322 282 283
f 424 449 368
f 273 274 385
f 273 385 275
f 265 266 383
f 265 383 384
f 441 443 262
f 441 262 264
f 253 254 255
f 253 255 252
f 263 257 250
f 263 250 249
f 229 244 243
f 229 32 244
f 214 216 239
f 214 239 238
f 20 213 231
f 225 226 234
f 225 234 232
f 218 219 57
f 218 57 55
f 218 217 240
f 218 240 239
f 218 239 216
f 219 218 216
f 219 216 215
f 7 103 207
f 187 200 201
f 198 183 181
f 171 172 158
f 202 201 190
f 171 191 192
f 171 192 193
f 176 175 179
f 176 179 180
f 169 168 156
f 123 150 159
f 123 159 160
f 136 154 155
f 136 155 119
f 144 141 142
f 144 142 145
f 133 134 137
f 131 127 134
f 125 126 128
f 123 102 101
f 123 101 122
f 111 109 108
f 111 108 110
f 99 100 98
f 99 98 65
f 99 65 67
f 88 56 58
f 84 83 80
f 84 80 85
f 79 75 51
f 50 72 42
f 50 42 38
f 50 38 37
f 59 45 61
f 61 60 59
f 52 35 34
f 40 41 43
f 40 43 39
f 244 241 34
f 244 34 230
f 40 39 7
f 45 47 41
f 56 57 58
f 65 63 66
f 65 66 67
f 42 72 46
f 76 51 52
f 82 80 83
f 78 89 74
f 94 93 95
f 69 48 47
f 97 98 100
f 97 100 96
f 111 110 112
f 112 113 111
f 115 114 124
f 115 124 125
f 133 132 130
f 134 138 137
f 136 143 146
f 146 153 136
f 150 148 158
f 158 159 150
f 165 151 152
f 154 164 169
f 154 169 155
f 186 184 183
f 186 183 185
f 162 190 191
f 201 200 192
f 201 192 191
f 181 179 196
f 181 196 197
f 103 102 205
f 103 205 207
f 44 49 105
f 44 105 104
f 217 218 55
f 217 55 33
f 208 225 232
f 231 213 212
f 231 212 232
f 228 233 242
f 228 242 243
f 236 235 242
f 236 242 245
f 431 249 248
f 273 275 254
f 273 254 253
f 440 261 276
f 226 225 260
f 226 260 258
f 270 271 408
f 270 408 406
f 271 270 274
f 271 274 273
f 274 270 269
f 274 269 268
f 274 268 267
f 274 267 266
f 274 266 265
f 449 280 368
f 282 351 369
f 286 287 302
f 291 324 311
f 291 312 324
f 283 282 190
f 293 312 291
f 293 291 292
f 308 307 303
f 308 303 304
f 317 316 325
f 317 325 330
f 332 352 351
f 331 335 336
f 331 336 329
f 342 338 339
f 345 356 355
f 347 346 349
f 347 349 348
f 365 370 353
f 365 353 354
f 366 364 362
f 366 362 363
f 377 402 403
f 374 373 398
f 374 398 401
f 377 93 378
f 382 379 388
f 382 388 386
f 387 78 81
f 391 390 413
f 417 418 402
f 404 418 416
f 409 430 431
f 420 424 419
f 428 429 445
f 428 445 447
f 438 437 442
f 451 446 12
f 451 12 5
f 448 450 6
f 448 6 9
f 442 439 438
f 426 427 452
f 426 452 453
f 418 422 416
f 409 408 430
f 400 404 401
f 400 401 398
f 395 394 417
f 390 412 413
f 387 384 386
f 409 388 379
f 409 379 407
f 378 392 377
f 95 376 416
f 373 374 375
f 373 375 371
f 360 112 361
f 360 113 112
f 114 359 350
f 114 350 124
f 347 344 346
f 344 341 343
f 339 337 145
f 339 145 142
f 328 342 355
f 328 355 327
f 332 351 322
f 332 322 323
f 315 314 327
f 315 327 326
f 301 299 300
f 301 300 302
f 289 288 290
f 190 293 283
f 288 289 304
f 285 286 298
f 369 281 282
f 449 448 280
f 275 227 256
f 268 269 405
f 268 405 380
f 430 263 431
f 440 441 261
f 258 259 250
f 258 250 247
f 431 263 249
f 235 229 243
f 235 243 242
f 238 239 240
f 238 240 237
f 16 19 228
f 16 228 230
f 223 224 83
f 223 83 84
f 215 216 214
f 215 214 82
f 39 103 7
f 123 160 201
f 123 201 202
f 175 172 193
f 175 193 195
f 198 194 199
f 191 171 162
f 182 180 179
f 182 179 181
f 167 157 156
f 164 154 153
f 164 153 163
f 121 157 150
f 121 150 122
f 153 154 136
f 141 144 143
f 136 132 133
f 136 133 137
f 131 130 129
f 131 129 128
f 101 106 120
f 101 120 121
f 107 105 108
f 107 108 109
f 92 96 60
f 94 95 69
f 92 90 93
f 77 54 56
f 77 56 88
f 82 79 80
f 75 74 50
f 70 61 46
f 59 63 65
f 59 65 62
f 54 32 33
f 33 55 54
f 43 44 39
f 36 37 1
f 36 1 2
f 35 36 2
f 35 2 10
f 45 41 42
f 45 42 46
f 34 241 52
f 64 63 59
f 64 59 60
f 46 72 71
f 77 76 52
f 77 52 53
f 87 86 85
f 87 85 88
f 90 73 74
f 90 74 89
f 92 93 97
f 92 97 96
f 73 92 61
f 73 61 70
f 105 107 106
f 120 106 118
f 120 118 119
f 125 128 129
f 118 117 130
f 118 130 132
f 119 118 132
f 136 141 143
f 147 151 153
f 147 153 146
f 150 123 122
f 167 166 152
f 167 152 157
f 159 173 174
f 162 161 190
f 200 199 194
f 200 194 192
f 205 202 203
f 179 175 195
f 201 160 187
f 110 49 68
f 49 108 105
f 217 33 237
f 217 237 240
f 224 215 82
f 224 82 83
f 34 13 16
f 33 229 235
f 33 235 237
f 241 32 53
f 257 256 247
f 257 247 250
f 259 264 249
f 259 249 250
f 276 261 260
f 276 260 277
f 208 277 260
f 271 272 430
f 271 430 408
f 414 419 367
f 414 367 366
f 369 368 280
f 369 280 281
f 304 302 287
f 304 287 288
f 284 283 293
f 284 293 292
f 321 293 190
f 299 297 298
f 299 298 300
f 319 328 327
f 319 327 314
f 330 331 318
f 337 334 321
f 327 355 354
f 335 333 334
f 335 334 337
f 343 340 140
f 343 140 139
f 346 343 127
f 348 358 357
f 370 369 352
f 364 357 358
f 364 358 362
f 367 368 369
f 367 369 370
f 376 374 401
f 93 91 378
f 410 388 409
f 387 386 388
f 387 388 389
f 413 395 392
f 397 399 400
f 409 407 406
f 416 422 420
f 416 420 415
f 426 453 449
f 426 449 425
f 445 442 444
f 449 453 450
f 449 450 448
f 447 445 444
f 447 444 446
f 251 248 262
f 251 262 429
f 422 423 424
f 422 424 420
f 428 411 251
f 418 404 402
f 404 403 402
f 421 393 413
f 421 413 426
f 421 426 425
f 387 412 390
f 384 383 382
f 384 382 386
f 379 380 405
f 373 372 396
f 373 396 398
f 372 373 371
f 362 360 361
f 362 361 363
f 369 351 352
f 350 348 349
f 357 356 345
f 357 345 347
f 345 342 341
f 345 341 344
f 339 338 337
f 329 336 342
f 325 353 352
f 325 352 332
f 321 145 337
f 315 326 325
f 323 309 310
f 311 310 308
f 288 287 290
f 204 281 280
f 204 280 206
f 298 296 284
f 298 284 285
f 448 206 280
f 275 385 81
f 275 81 227
f 267 268 380
f 267 380 381
f 226 258 247
f 226 247 246
f 257 255 254
f 257 254 256
f 431 248 251
f 227 236 245
f 227 245 246
f 233 234 245
f 233 245 242
f 231 19 20
f 33 32 229
f 220 221 87
f 220 87 58
f 227 214 236
f 207 8 7
f 123 202 102
f 202 205 102
f 181 197 198
f 171 193 172
f 201 191 190
f 195 194 196
f 184 182 181
f 184 181 183
f 156 155 169
f 150 157 152
f 150 152 149
f 156 157 121
f 146 143 144
f 146 144 147
f 137 138 141
f 134 133 131
f 129 130 117
f 101 121 122
f 111 113 114
f 111 114 115
f 67 66 64
f 67 64 100
f 67 100 99
f 97 47 62
f 90 89 91
f 87 88 58
f 81 79 82
f 73 70 50
f 68 49 48
f 68 48 69
f 57 56 54
f 51 50 37
f 51 37 36
f 41 40 42
f 243 244 230
f 243 230 228
f 7 38 40
f 43 48 49
f 43 49 44
f 62 47 45
f 46 71 70
f 70 71 72
f 70 72 50
f 75 79 78
f 84 85 86
f 74 75 78
f 94 97 93
f 69 47 94
f 96 100 64
f 96 64 60
f 116 109 111
f 116 111 115
f 126 127 128
f 130 131 133
f 138 134 139
f 138 139 140
f 149 147 144
f 149 144 148
f 120 119 155
f 162 148 144
f 166 165 152
f 159 158 172
f 159 172 173
f 160 159 188
f 160 188 187
f 195 193 192
f 195 192 194
f 190 203 202
f 183 198 185
f 206 9 8
f 49 110 108
f 219 220 58
f 219 58 57
f 208 232 212
f 233 231 232
f 233 232 234
f 54 53 32
f 389 412 387
f 410 431 251
f 263 430 255
f 263 255 257
f 443 445 429
f 274 265 384
f 274 384 385
f 430 272 252
f 430 252 255
f 414 366 363
f 68 414 361
f 283 284 296
f 286 302 300
f 203 282 281
f 285 284 292
f 285 292 290
f 321 190 161
f 309 307 308
f 308 310 309
f 320 318 331
f 320 331 329
f 354 353 325
f 333 332 334
f 341 342 339
f 355 342 345
f 350 359 358
f 350 358 348
f 365 356 357
f 365 357 364
f 365 366 367
f 365 367 370
f 375 377 403
f 376 93 374
f 78 390 391
f 383 381 382
f 390 78 387
f 394 395 413
f 394 413 393
f 402 395 417
f 416 401 404
f 412 411 428
f 412 428 427
f 423 421 425
f 248 249 264
f 248 264 262
f 446 444 15
f 446 15 12
f 450 451 5
f 450 5 6
f 444 442 18
f 444 18 15
f 437 24 18
f 437 18 442
f 425 449 423
f 449 424 423
f 415 420 419
f 415 419 414
f 407 405 406
f 400 398 396
f 400 396 397
f 421 417 393
f 389 411 412
f 387 385 384
f 391 89 78
f 376 95 93
f 416 415 69
f 416 69 95
f 371 375 403
f 371 403 399
f 362 358 359
f 362 359 360
f 126 349 127
f 347 345 344
f 341 339 340
f 338 336 335
f 338 335 337
f 326 354 325
f 325 332 333
f 325 333 330
f 324 323 310
f 324 310 311
f 295 296 298
f 295 298 297
f 290 287 286
f 203 281 204
f 289 308 304
f 283 296 322
f 68 361 112
f 419 424 368
f 419 368 367
f 273 253 252
f 273 252 272
f 273 272 271
f 256 254 275
f 266 267 381
f 266 381 383
f 443 429 262
f 441 264 259
f 441 259 261
f 410 251 411
f 256 227 246
f 256 246 247
f 32 241 244
f 237 235 236
f 237 236 238
f 234 226 246
f 234 246 245
f 221 222 86
f 221 86 87
f 82 214 227
f 82 227 81
f 8 207 206
f 187 185 199
f 187 199 200
f 205 204 206
f 205 206 207
f 196 194 197
f 172 175 173
f 174 175 176
f 174 173 175
f 156 168 167
f 161 162 144
f 161 144 145
f 120 155 156
f 149 152 151
f 149 151 147
f 141 138 140
f 141 140 142
f 128 127 131
f 115 125 129
f 115 129 116
f 118 106 107
f 118 107 117
f 105 106 101
f 105 101 104
f 60 61 92
f 98 97 62
f 98 62 65
f 92 73 90
f 88 85 80
f 88 80 77
f 79 81 78
f 50 51 75
f 61 45 46
f 62 45 59
f 52 51 36
f 52 36 35
f 40 38 42
f 34 35 10
f 34 10 13
f 1 37 38
f 1 38 7
f 41 47 48
f 41 48 43
f 54 55 57
f 66 63 64
f 73 50 74
f 80 79 76
f 80 76 77
f 53 54 77
f 93 90 91
f 97 94 47
f 103 104 101
f 103 101 102
f 117 107 109
f 117 109 116
f 124 126 125
f 117 116 129
f 119 132 136
f 141 136 137
f 149 148 150
f 121 120 156
f 165 163 153
f 165 153 151
f 158 148 162
f 158 162 171
f 187 188 186
f 187 186 185
f 194 198 197
f 203 204 205
f 195 196 179
f 199 185 198
f 68 112 110
f 39 44 104
f 39 104 103
f 215 224 223
f 215 223 222
f 215 222 221
f 215 221 220
f 215 220 219
f 214 238 236
f 222 223 84
f 222 84 86
f 16 230 34
f 228 19 231
f 228 231 233
f 53 52 241
f 76 79 51
f 409 431 410
f 261 259 258
f 261 258 260
f 225 208 260
f 269 270 406
f 269 406 405
f 414 363 361
f 448 9 206
f 300 298 286
f 190 282 203
f 291 289 290
f 291 290 292
f 323 322 296
f 323 296 295
f 334 324 312
f 334 312 321
f 318 317 330
f 321 161 145
f 354 326 327
f 330 333 335
f 330 335 331
f 340 339 142
f 340 142 140
f 349 346 127
f 348 357 347
f 124 350 126
f 365 354 355
f 365 355 356
f 366 365 364
f 377 392 395
f 377 395 402
f 93 377 375
f 93 375 374
f 378 91 89
f 381 380 379
f 381 379 382
f 389 388 410
f 389 410 411
f 417 394 393
f 400 399 403
f 400 403 404
f 251 429 428
f 422 418 417
f 422 417 421
f 427 428 447
f 427 447 452
f 445 443 442
f 453 452 451
f 453 451 450
# 902 Faces
